<svg width="360" height="120" viewBox="0 0 360 120" xmlns="http://www.w3.org/2000/svg">
    <path fill="#f6a2b1" d="M360,120H120a120,120,0,0,1,240,0Z" />
    <path class="uk-preserve" fill="#fedf72" d="M120,0V120A120,120,0,0,1,0,0Z" />
</svg>
