<svg width="510" height="355" viewBox="0 0 510 355" xmlns="http://www.w3.org/2000/svg">
    <path fill="#2853b9" d="M510.0059,353.9574a174.227,174.227,0,0,1,0-348.454Z" />
    <path fill="#fedf72" d="M352.301,87.86A87.417,87.417,0,1,1,264.8836.4434h0A87.418,87.418,0,0,1,352.301,87.86" />
    <path fill="#f6a2b1" d="M3.7146,353.9564c0-103.975,84.308-188.283,188.283-188.283,104.003,0,188.311,84.308,188.311,188.283H265.7246a73.714,73.714,0,0,0-73.701-73.727h-.026a73.7321,73.7321,0,0,0-73.727,73.727Z" />
</svg>
