<svg width="50" height="50" viewBox="0 0 50 50" xmlns="http://www.w3.org/2000/svg">
    <circle class="uk-preserve" fill="#4faae7" cx="22" cy="21" r="20" />
    <polygon class="uk-preserve" fill="#fff" points="48 19 48 39 45 39 45 41 38 41 38 47 31 41 18 41 18 22 21 22 21 19 48 19" />
    <path fill="none" stroke="#1e3876" stroke-miterlimit="10" stroke-width="2" d="M45,39h3V19H21v3M38,47l-7-6H18V22H45V41H38Z" />
</svg>
